<svg height="64" width="64" xmlns="http://www.w3.org/2000/svg">
	<defs>
		<linearGradient id="gradient" x1="0%" y1="0%" x2="0%" y2="100%">
			<stop offset="10%" stop-color="white" stop-opacity="1"/>
			<stop offset="90%" stop-color="black" stop-opacity="1"/>
		</linearGradient>
		<mask id="Mask">
			<rect width="100%" height="100%" fill="url(#gradient)"  />
			<ellipse cx="25%" cy="40%" rx="4" ry="8" fill="black"/>
			<ellipse cx="75%" cy="40%" rx="4" ry="8" fill="black"/>
		</mask>
	</defs>
	<circle cx="50%" cy="50%" r="50%" mask="url(#Mask)" fill="black"/>
</svg>